data/raw/exp_data/he_spec_4.csv

CH1,CH2,CH3,Start,Increment,
Volt,Volt,Volt,-3.00000e-01,5.00000e-04
2.46e+00,-3.46e+00,-1.36e-01,
2.50e+00,-3.54e+00,-1.12e-01,
2.46e+00,-3.48e+00,-1.28e-01,
2.48e+00,-3.52e+00,-1.04e-01,
2.46e+00,-3.50e+00,-1.28e-01,
2.48e+00,-3.48e+00,-1.12e-01,
2.46e+00,-3.48e+00,-1.20e-01,
2.48e+00,-3.54e+00,-9.60e-02,
2.48e+00,-3.48e+00,-1.12e-01,
2.42e+00,-3.54e+00,-9.60e-02,
2.42e+00,-3.48e+00,-8.80e-02,
2.48e+00,-3.54e+00,-1.20e-01,
2.42e+00,-3.48e+00,-1.20e-01,
2.48e+00,-3.54e+00,-9.60e-02,
2.44e+00,-3.54e+00,-9.60e-02,
2.42e+00,-3.48e+00,-1.20e-01,
2.42e+00,-3.52e+00,-1.20e-01,
2.44e+00,-3.54e+00,-9.60e-02,
2.44e+00,-3.52e+00,-1.12e-01,
2.42e+00,-3.54e+00,-8.80e-02,
2.44e+00,-3.52e+00,-9.60e-02,
2.40e+00,-3.54e+00,-1.12e-01,
2.44e+00,-3.52e+00,-1.04e-01,
2.40e+00,-3.56e+00,-8.80e-02,
2.44e+00,-3.52e+00,-9.60e-02,
2.40e+00,-3.56e+00,-1.20e-01,
2.40e+00,-3.52e+00,-1.20e-01,
2.42e+00,-3.56e+00,-9.60e-02,
2.40e+00,-3.52e+00,-1.12e-01,
2.42e+00,-3.54e+00,-8.80e-02,
2.40e+00,-3.52e+00,-1.12e-01,
2.42e+00,-3.56e+00,-8.80e-02,
2.42e+00,-3.52e+00,-1.12e-01,
2.36e+00,-3.56e+00,-5.60e-02,
2.42e+00,-3.52e+00,-7.20e-02,
2.36e+00,-3.54e+00,-3.20e-02,
2.38e+00,-3.52e+00,-4.00e-02,
2.36e+00,-3.54e+00,2.40e-02,
2.38e+00,-3.54e+00,1.60e-02,
2.36e+00,-3.48e+00,1.92e-01,
2.38e+00,-3.50e+00,2.00e-01,
2.36e+00,-3.40e+00,7.44e-01,
2.38e+00,-3.44e+00,8.48e-01,
2.36e+00,-3.38e+00,4.08e-01,
2.38e+00,-3.38e+00,3.84e-01,
2.36e+00,-3.50e+00,-5.04e-01,
2.38e+00,-3.50e+00,-5.04e-01,
2.34e+00,-3.54e+00,-2.32e-01,
2.38e+00,-3.52e+00,-2.40e-01,
2.34e+00,-3.56e+00,-1.28e-01,
2.34e+00,-3.52e+00,-1.36e-01,
2.36e+00,-3.54e+00,-9.60e-02,
2.36e+00,-3.52e+00,-1.12e-01,
2.34e+00,-3.54e+00,-5.60e-02,
2.36e+00,-3.52e+00,-7.20e-02,
2.32e+00,-3.56e+00,-4.00e-02,
2.36e+00,-3.52e+00,-6.40e-02,
2.32e+00,-3.56e+00,-4.00e-02,
2.32e+00,-3.52e+00,-4.80e-02,
2.36e+00,-3.54e+00,-6.40e-02,
2.32e+00,-3.52e+00,-7.20e-02,
2.34e+00,-3.54e+00,-4.80e-02,
2.32e+00,-3.54e+00,-6.40e-02,
2.34e+00,-3.50e+00,-4.00e-02,
2.34e+00,-3.54e+00,-6.40e-02,
2.32e+00,-3.48e+00,-4.00e-02,
2.34e+00,-3.48e+00,-4.80e-02,
2.28e+00,-3.54e+00,-2.40e-02,
2.34e+00,-3.52e+00,-3.20e-02,
2.28e+00,-3.46e+00,-8.00e-03,
2.32e+00,-3.50e+00,0.00e+00,
2.28e+00,-3.46e+00,-2.40e-02,
2.28e+00,-3.46e+00,-1.60e-02,
2.30e+00,-3.50e+00,-4.00e-02,
2.28e+00,-3.50e+00,-4.00e-02,
2.30e+00,-3.46e+00,8.00e-03,
2.30e+00,-3.46e+00,8.00e-03,
2.28e+00,-3.50e+00,-8.00e-03,
2.30e+00,-3.48e+00,-8.00e-03,
2.26e+00,-3.44e+00,1.60e-02,
2.30e+00,-3.44e+00,0.00e+00,
2.26e+00,-3.48e+00,2.40e-02,
2.28e+00,-3.44e+00,1.60e-02,
2.26e+00,-3.44e+00,-8.00e-03,
2.26e+00,-3.44e+00,8.00e-03,
2.28e+00,-3.40e+00,3.20e-02,
2.26e+00,-3.44e+00,8.00e-03,
2.28e+00,-3.40e+00,3.20e-02,
2.28e+00,-3.40e+00,1.60e-02,
2.24e+00,-3.44e+00,3.20e-02,
2.28e+00,-3.44e+00,4.00e-02,
2.22e+00,-3.40e+00,1.60e-02,
2.22e+00,-3.42e+00,2.40e-02,
2.28e+00,-3.38e+00,5.60e-02,
2.24e+00,-3.38e+00,4.80e-02,
2.22e+00,-3.44e+00,8.00e-02,
2.22e+00,-3.40e+00,8.80e-02,
2.24e+00,-3.34e+00,6.40e-02,
2.22e+00,-3.38e+00,7.20e-02,
2.24e+00,-3.34e+00,8.80e-02,
2.24e+00,-3.36e+00,8.80e-02,
2.20e+00,-3.32e+00,7.20e-02,
2.24e+00,-3.36e+00,7.20e-02,
2.20e+00,-3.32e+00,8.80e-02,
2.20e+00,-3.32e+00,8.00e-02,
2.24e+00,-3.36e+00,1.20e-01,
2.22e+00,-3.34e+00,1.28e-01,
2.20e+00,-3.28e+00,1.12e-01,
2.22e+00,-3.34e+00,1.36e-01,
2.20e+00,-3.28e+00,1.04e-01,
2.20e+00,-3.30e+00,9.60e-02,
2.22e+00,-3.22e+00,1.12e-01,
2.22e+00,-3.24e+00,1.28e-01,
2.18e+00,-3.28e+00,1.04e-01,
2.18e+00,-3.24e+00,1.20e-01,
2.22e+00,-3.22e+00,1.52e-01,
2.18e+00,-3.24e+00,1.36e-01,
2.22e+00,-3.20e+00,1.84e-01,
2.18e+00,-3.20e+00,1.84e-01,
2.20e+00,-3.24e+00,1.60e-01,
2.18e+00,-3.22e+00,2.00e-01,
2.20e+00,-3.18e+00,1.68e-01,
2.18e+00,-3.22e+00,1.60e-01,
2.20e+00,-3.18e+00,1.92e-01,
2.20e+00,-3.20e+00,1.84e-01,
2.14e+00,-3.14e+00,2.16e-01,
2.18e+00,-3.18e+00,2.08e-01,
2.14e+00,-3.12e+00,2.32e-01,
2.16e+00,-3.14e+00,2.16e-01,
2.14e+00,-3.08e+00,2.48e-01,
2.16e+00,-3.10e+00,2.48e-01,
2.14e+00,-3.08e+00,2.40e-01,
2.16e+00,-3.10e+00,2.40e-01,
2.14e+00,-3.06e+00,2.64e-01,
2.16e+00,-3.08e+00,2.56e-01,
2.14e+00,-3.04e+00,2.32e-01,
2.16e+00,-3.08e+00,2.40e-01,
2.12e+00,-3.02e+00,2.64e-01,
2.16e+00,-3.04e+00,2.56e-01,
2.12e+00,-3.00e+00,2.80e-01,
2.12e+00,-3.02e+00,2.72e-01,
2.16e+00,-2.98e+00,3.04e-01,
2.12e+00,-3.02e+00,2.88e-01,
2.14e+00,-2.94e+00,3.20e-01,
2.12e+00,-2.96e+00,3.12e-01,
2.14e+00,-2.88e+00,3.44e-01,
2.14e+00,-2.88e+00,3.28e-01,
2.10e+00,-2.94e+00,3.60e-01,
2.14e+00,-2.90e+00,3.52e-01,
2.10e+00,-2.86e+00,3.68e-01,
2.14e+00,-2.86e+00,3.52e-01,
2.08e+00,-2.88e+00,3.68e-01,
2.10e+00,-2.88e+00,3.52e-01,
2.08e+00,-2.82e+00,3.76e-01,
2.10e+00,-2.84e+00,3.68e-01,
2.08e+00,-2.80e+00,3.92e-01,
2.10e+00,-2.82e+00,3.84e-01,
2.08e+00,-2.78e+00,4.16e-01,
2.10e+00,-2.80e+00,4.00e-01,
2.06e+00,-2.72e+00,4.32e-01,
2.10e+00,-2.74e+00,4.24e-01,
2.06e+00,-2.68e+00,4.48e-01,
2.10e+00,-2.70e+00,4.48e-01,
2.06e+00,-2.66e+00,4.64e-01,
2.06e+00,-2.68e+00,4.56e-01,
2.10e+00,-2.62e+00,4.80e-01,
2.08e+00,-2.66e+00,4.64e-01,
2.06e+00,-2.62e+00,4.96e-01,
2.06e+00,-2.64e+00,4.80e-01,
2.08e+00,-2.60e+00,5.12e-01,
2.06e+00,-2.62e+00,4.96e-01,
2.08e+00,-2.58e+00,5.28e-01,
2.08e+00,-2.60e+00,5.04e-01,
2.04e+00,-2.54e+00,5.28e-01,
2.06e+00,-2.60e+00,5.20e-01,
2.08e+00,-2.58e+00,5.52e-01,
2.06e+00,-2.58e+00,5.36e-01,
2.08e+00,-2.60e+00,5.52e-01,
2.08e+00,-2.58e+00,5.44e-01,
2.06e+00,-2.62e+00,5.12e-01,
2.08e+00,-2.60e+00,4.96e-01,
2.06e+00,-2.62e+00,5.28e-01,
2.06e+00,-2.60e+00,5.28e-01,
2.10e+00,-2.64e+00,5.04e-01,
2.06e+00,-2.60e+00,5.28e-01,
2.10e+00,-2.64e+00,4.96e-01,
2.10e+00,-2.62e+00,5.12e-01,
2.08e+00,-2.68e+00,4.80e-01,
2.10e+00,-2.68e+00,5.04e-01,
2.08e+00,-2.64e+00,4.72e-01,
2.10e+00,-2.66e+00,4.64e-01,
2.08e+00,-2.68e+00,4.88e-01,
2.08e+00,-2.66e+00,4.64e-01,
2.10e+00,-2.70e+00,4.88e-01,
2.08e+00,-2.68e+00,4.64e-01,
2.12e+00,-2.74e+00,4.88e-01,
2.08e+00,-2.74e+00,4.80e-01,
2.14e+00,-2.70e+00,4.48e-01,
2.14e+00,-2.72e+00,4.72e-01,
2.08e+00,-2.80e+00,4.32e-01,
2.14e+00,-2.78e+00,4.40e-01,
2.12e+00,-2.82e+00,4.08e-01,
2.12e+00,-2.80e+00,4.08e-01,
2.14e+00,-2.84e+00,4.40e-01,
2.12e+00,-2.84e+00,4.16e-01,
2.14e+00,-2.80e+00,3.84e-01,
2.12e+00,-2.82e+00,3.84e-01,
2.16e+00,-2.88e+00,4.00e-01,
2.16e+00,-2.84e+00,3.84e-01,
2.12e+00,-2.88e+00,4.00e-01,
2.12e+00,-2.88e+00,4.16e-01,
2.16e+00,-2.86e+00,3.84e-01,
2.16e+00,-2.86e+00,4.00e-01,
2.14e+00,-2.90e+00,3.76e-01,
2.16e+00,-2.90e+00,3.84e-01,
2.14e+00,-2.86e+00,3.60e-01,
2.14e+00,-2.88e+00,3.84e-01,
2.16e+00,-2.92e+00,3.52e-01,
2.14e+00,-2.88e+00,3.76e-01,
2.20e+00,-2.94e+00,3.60e-01,
2.14e+00,-2.92e+00,3.76e-01,
2.20e+00,-2.96e+00,3.52e-01,
2.18e+00,-2.94e+00,3.68e-01,
2.20e+00,-3.02e+00,3.36e-01,
2.18e+00,-2.98e+00,3.44e-01,
2.20e+00,-3.02e+00,3.04e-01,
2.18e+00,-3.00e+00,3.20e-01,
2.20e+00,-3.04e+00,2.88e-01,
2.18e+00,-3.04e+00,2.88e-01,
2.20e+00,-3.00e+00,3.12e-01,
2.18e+00,-3.04e+00,3.04e-01,
2.22e+00,-3.02e+00,2.80e-01,
2.18e+00,-3.04e+00,2.96e-01,
2.22e+00,-3.08e+00,2.64e-01,
2.22e+00,-3.06e+00,2.80e-01,
2.18e+00,-3.08e+00,2.56e-01,
2.22e+00,-3.06e+00,2.64e-01,
2.20e+00,-3.08e+00,2.80e-01,
2.22e+00,-3.10e+00,2.80e-01,
2.20e+00,-3.06e+00,2.56e-01,
2.20e+00,-3.10e+00,2.80e-01,
2.22e+00,-3.08e+00,2.48e-01,
2.20e+00,-3.08e+00,2.48e-01,
2.24e+00,-3.14e+00,2.72e-01,
2.24e+00,-3.12e+00,2.56e-01,
2.20e+00,-3.16e+00,2.24e-01,
2.24e+00,-3.14e+00,2.40e-01,
2.22e+00,-3.20e+00,2.08e-01,
2.24e+00,-3.18e+00,2.24e-01,
2.22e+00,-3.20e+00,2.00e-01,
2.24e+00,-3.18e+00,1.92e-01,
2.22e+00,-3.22e+00,2.16e-01,
2.24e+00,-3.22e+00,2.16e-01,
2.22e+00,-3.18e+00,1.84e-01,
2.28e+00,-3.22e+00,1.92e-01,
2.22e+00,-3.18e+00,2.08e-01,
2.28e+00,-3.20e+00,2.00e-01,
2.26e+00,-3.24e+00,2.24e-01,
2.28e+00,-3.20e+00,2.24e-01,
2.26e+00,-3.24e+00,1.84e-01,
2.28e+00,-3.24e+00,1.84e-01,
2.26e+00,-3.20e+00,1.68e-01,
2.26e+00,-3.24e+00,1.76e-01,
2.28e+00,-3.22e+00,1.60e-01,
2.26e+00,-3.24e+00,1.76e-01,
2.28e+00,-3.28e+00,1.44e-01,
2.26e+00,-3.28e+00,1.60e-01,
2.30e+00,-3.22e+00,1.36e-01,
2.30e+00,-3.26e+00,1.52e-01,
2.26e+00,-3.30e+00,1.20e-01,
2.30e+00,-3.34e+00,1.36e-01,
2.28e+00,-3.28e+00,1.04e-01,
2.28e+00,-3.34e+00,1.36e-01,
2.30e+00,-3.30e+00,1.12e-01,
2.30e+00,-3.34e+00,9.60e-02,
2.28e+00,-3.32e+00,1.28e-01,
2.30e+00,-3.32e+00,1.12e-01,
2.28e+00,-3.36e+00,8.80e-02,
2.28e+00,-3.32e+00,8.00e-02,
2.34e+00,-3.36e+00,1.04e-01,
2.34e+00,-3.36e+00,1.04e-01,
2.28e+00,-3.34e+00,8.80e-02,
2.32e+00,-3.34e+00,1.12e-01,
2.34e+00,-3.38e+00,8.80e-02,
2.32e+00,-3.34e+00,1.04e-01,
2.34e+00,-3.40e+00,8.00e-02,
2.32e+00,-3.34e+00,8.00e-02,
2.36e+00,-3.40e+00,1.04e-01,
2.32e+00,-3.38e+00,8.80e-02,
2.36e+00,-3.40e+00,6.40e-02,
2.36e+00,-3.38e+00,8.80e-02,
2.32e+00,-3.44e+00,5.60e-02,
2.36e+00,-3.40e+00,7.20e-02,
2.32e+00,-3.42e+00,3.20e-02,
2.36e+00,-3.40e+00,5.60e-02,
2.34e+00,-3.44e+00,3.20e-02,
2.36e+00,-3.40e+00,3.20e-02,
2.34e+00,-3.44e+00,6.40e-02,
2.34e+00,-3.44e+00,4.00e-02,
2.38e+00,-3.40e+00,6.40e-02,
2.34e+00,-3.44e+00,4.80e-02,
2.38e+00,-3.40e+00,2.40e-02,
2.38e+00,-3.44e+00,4.80e-02,
2.36e+00,-3.40e+00,1.60e-02,
2.38e+00,-3.42e+00,4.00e-02,
2.36e+00,-3.48e+00,1.60e-02,
2.38e+00,-3.42e+00,1.60e-02,
2.36e+00,-3.48e+00,3.20e-02,
2.38e+00,-3.48e+00,3.20e-02,
2.36e+00,-3.44e+00,8.00e-03,
2.36e+00,-3.48e+00,0.00e+00,
2.42e+00,-3.44e+00,2.40e-02,
2.42e+00,-3.46e+00,8.00e-03,
2.38e+00,-3.50e+00,-3.20e-02,
2.40e+00,-3.46e+00,-3.20e-02,
2.42e+00,-3.50e+00,8.00e-03,
2.40e+00,-3.50e+00,8.00e-03,
2.42e+00,-3.46e+00,-1.60e-02,
2.40e+00,-3.50e+00,-2.40e-02,
2.42e+00,-3.46e+00,0.00e+00,
2.42e+00,-3.50e+00,8.00e-03,
2.40e+00,-3.46e+00,-2.40e-02,
2.40e+00,-3.48e+00,-8.00e-03,
2.44e+00,-3.50e+00,2.40e-02,
2.40e+00,-3.50e+00,1.60e-02,
2.44e+00,-3.48e+00,-1.60e-02,
2.44e+00,-3.48e+00,8.00e-03,
2.42e+00,-3.54e+00,-3.20e-02,
2.44e+00,-3.48e+00,-1.60e-02,
2.42e+00,-3.54e+00,-4.00e-02,
2.42e+00,-3.54e+00,-2.40e-02,
2.44e+00,-3.48e+00,-4.80e-02,
2.42e+00,-3.54e+00,-4.80e-02,
2.48e+00,-3.50e+00,-3.20e-02,
2.42e+00,-3.54e+00,-3.20e-02,
2.48e+00,-3.50e+00,-5.60e-02,
2.44e+00,-3.52e+00,-5.60e-02,
2.48e+00,-3.54e+00,-4.00e-02,
2.46e+00,-3.52e+00,-4.80e-02,
2.48e+00,-3.54e+00,-6.40e-02,
2.46e+00,-3.52e+00,-4.80e-02,
2.48e+00,-3.54e+00,-7.20e-02,
2.48e+00,-3.52e+00,-5.60e-02,
2.46e+00,-3.54e+00,-7.20e-02,
2.46e+00,-3.52e+00,-5.60e-02,
2.48e+00,-3.56e+00,-8.00e-02,
2.46e+00,-3.52e+00,-7.20e-02,
2.50e+00,-3.56e+00,-5.60e-02,
2.50e+00,-3.52e+00,-5.60e-02,
2.46e+00,-3.56e+00,-8.00e-02,
2.50e+00,-3.52e+00,-5.60e-02,
2.48e+00,-3.56e+00,-8.80e-02,
2.48e+00,-3.54e+00,-8.80e-02,
2.50e+00,-3.40e+00,-6.56e-01,
2.48e+00,-3.42e+00,-8.64e-01,
2.52e+00,-3.38e+00,-6.24e-01,
2.48e+00,-3.38e+00,-6.08e-01,
2.54e+00,-3.44e+00,4.48e-01,
2.52e+00,-3.44e+00,4.56e-01,
2.48e+00,-3.50e+00,7.52e-01,
2.52e+00,-3.48e+00,7.20e-01,
2.54e+00,-3.54e+00,4.24e-01,
2.52e+00,-3.54e+00,4.32e-01,
2.52e+00,-3.52e+00,1.92e-01,
2.52e+00,-3.52e+00,2.00e-01,
2.52e+00,-3.56e+00,5.60e-02,
2.52e+00,-3.52e+00,6.40e-02,
2.52e+00,-3.56e+00,-1.60e-02,
2.52e+00,-3.52e+00,-1.60e-02,
2.56e+00,-3.56e+00,-8.00e-02,
2.52e+00,-3.56e+00,-8.00e-02,
2.56e+00,-3.52e+00,-5.60e-02,
2.54e+00,-3.52e+00,-7.20e-02,
2.56e+00,-3.56e+00,-1.04e-01,
2.54e+00,-3.52e+00,-8.80e-02,
2.56e+00,-3.56e+00,-1.12e-01,
2.54e+00,-3.52e+00,-1.12e-01,
2.56e+00,-3.56e+00,-9.60e-02,
2.54e+00,-3.56e+00,-9.60e-02,
2.58e+00,-3.52e+00,-1.20e-01,
2.58e+00,-3.52e+00,-9.60e-02,
2.54e+00,-3.56e+00,-1.28e-01,
2.58e+00,-3.52e+00,-1.20e-01,
2.56e+00,-3.56e+00,-9.60e-02,
2.58e+00,-3.52e+00,-1.12e-01,
2.56e+00,-3.56e+00,-8.80e-02,
2.58e+00,-3.54e+00,-1.20e-01,
2.56e+00,-3.52e+00,-8.80e-02,
2.58e+00,-3.54e+00,-8.80e-02,
2.56e+00,-3.50e+00,-1.04e-01,
2.56e+00,-3.54e+00,-9.60e-02,
2.60e+00,-3.48e+00,-1.28e-01,
2.62e+00,-3.54e+00,-1.28e-01,
2.56e+00,-3.48e+00,-1.04e-01,
2.62e+00,-3.54e+00,-1.20e-01,
2.58e+00,-3.48e+00,-1.04e-01,
2.60e+00,-3.48e+00,-1.04e-01,
2.62e+00,-3.54e+00,-1.20e-01,
2.60e+00,-3.48e+00,-1.04e-01,
2.62e+00,-3.52e+00,-1.28e-01,
2.62e+00,-3.50e+00,-1.04e-01,
2.60e+00,-3.48e+00,-1.28e-01,
2.60e+00,-3.50e+00,-1.36e-01,
2.64e+00,-3.46e+00,-1.12e-01,
2.62e+00,-3.50e+00,-1.20e-01,
2.64e+00,-3.46e+00,-9.60e-02,
2.64e+00,-3.50e+00,-8.80e-02,
2.62e+00,-3.46e+00,-1.12e-01,
2.64e+00,-3.46e+00,-1.04e-01,
2.62e+00,-3.54e+00,-1.20e-01,
2.62e+00,-3.48e+00,-1.04e-01,
2.66e+00,-3.44e+00,-1.36e-01,
2.62e+00,-3.48e+00,-1.20e-01,
2.68e+00,-3.42e+00,-1.36e-01,
2.68e+00,-3.42e+00,-1.20e-01,
2.62e+00,-3.48e+00,-1.36e-01,
2.66e+00,-3.44e+00,-1.20e-01,
2.68e+00,-3.48e+00,-1.44e-01,
2.66e+00,-3.44e+00,-1.44e-01,
2.68e+00,-3.46e+00,-1.12e-01,
2.66e+00,-3.46e+00,-1.20e-01,
2.68e+00,-3.42e+00,-1.44e-01,
2.66e+00,-3.44e+00,-1.20e-01,
2.70e+00,-3.42e+00,-1.60e-01,
2.66e+00,-3.44e+00,-1.20e-01,
2.70e+00,-3.40e+00,-1.44e-01,
2.70e+00,-3.44e+00,-1.44e-01,
2.68e+00,-3.40e+00,-1.20e-01,
2.68e+00,-3.44e+00,-1.20e-01,
2.70e+00,-3.38e+00,-1.52e-01,
2.68e+00,-3.38e+00,-1.52e-01,
2.70e+00,-3.42e+00,-1.28e-01,
2.68e+00,-3.38e+00,-1.44e-01,
2.70e+00,-3.40e+00,-1.12e-01,
2.70e+00,-3.40e+00,-1.28e-01,
2.68e+00,-3.34e+00,-1.44e-01,
2.68e+00,-3.40e+00,-1.20e-01,
2.72e+00,-3.34e+00,-1.44e-01,
2.72e+00,-3.34e+00,-1.44e-01,
2.68e+00,-3.40e+00,-1.20e-01,
2.70e+00,-3.34e+00,-1.12e-01,
2.72e+00,-3.40e+00,-1.36e-01,
2.70e+00,-3.36e+00,-1.28e-01,
2.72e+00,-3.32e+00,-1.04e-01,
2.72e+00,-3.36e+00,-1.04e-01,
2.70e+00,-3.32e+00,-1.36e-01,
2.70e+00,-3.34e+00,-1.28e-01,
2.76e+00,-3.28e+00,-1.12e-01,
2.76e+00,-3.30e+00,-1.36e-01,
2.70e+00,-3.26e+00,-1.12e-01,
2.76e+00,-3.30e+00,-1.12e-01,
2.74e+00,-3.26e+00,-1.44e-01,
2.76e+00,-3.26e+00,-1.36e-01,
2.74e+00,-3.30e+00,-1.04e-01,
2.74e+00,-3.26e+00,-1.28e-01,
2.76e+00,-3.30e+00,-1.04e-01,
2.74e+00,-3.28e+00,-1.28e-01,
2.78e+00,-3.24e+00,-1.04e-01,
2.74e+00,-3.28e+00,-1.12e-01,
2.78e+00,-3.22e+00,-1.36e-01,
2.76e+00,-3.28e+00,-1.12e-01,
2.78e+00,-3.22e+00,-1.44e-01,
2.76e+00,-3.24e+00,-1.44e-01,
2.78e+00,-3.28e+00,-1.04e-01,
2.76e+00,-3.24e+00,-1.20e-01,
2.78e+00,-3.18e+00,-9.60e-02,
2.78e+00,-3.22e+00,-1.20e-01,
2.76e+00,-3.14e+00,-9.60e-02,
2.76e+00,-3.14e+00,-9.60e-02,
2.78e+00,-3.18e+00,-1.28e-01,
2.76e+00,-3.16e+00,-1.28e-01,
2.82e+00,-3.14e+00,-1.04e-01,
2.82e+00,-3.16e+00,-1.20e-01,
2.78e+00,-3.12e+00,-8.80e-02,
2.80e+00,-3.12e+00,-8.80e-02,
2.82e+00,-3.16e+00,-1.12e-01,
2.80e+00,-3.12e+00,-8.80e-02,
2.82e+00,-3.16e+00,-1.12e-01,
2.80e+00,-3.14e+00,-1.12e-01,
2.84e+00,-3.10e+00,-8.80e-02,
2.80e+00,-3.14e+00,-9.60e-02,
2.84e+00,-3.10e+00,-1.12e-01,
2.80e+00,-3.10e+00,-1.04e-01,
2.84e+00,-3.04e+00,-7.20e-02,
2.84e+00,-3.04e+00,-8.00e-02,
2.82e+00,-3.06e+00,-1.04e-01,
2.84e+00,-3.04e+00,-1.04e-01,
2.82e+00,-3.00e+00,-8.80e-02,
2.84e+00,-3.04e+00,-1.04e-01,
2.82e+00,-3.00e+00,-8.80e-02,
2.82e+00,-3.00e+00,-9.60e-02,
2.84e+00,-3.02e+00,-6.40e-02,
2.82e+00,-3.02e+00,-7.20e-02,
2.86e+00,-2.98e+00,-9.60e-02,
2.86e+00,-3.02e+00,-8.00e-02,
2.84e+00,-2.98e+00,-6.40e-02,
2.86e+00,-3.02e+00,-8.00e-02,
2.84e+00,-2.94e+00,-5.60e-02,
2.86e+00,-3.00e+00,-6.40e-02,
2.84e+00,-2.94e+00,-4.80e-02,
2.86e+00,-2.96e+00,-6.40e-02,
2.84e+00,-2.92e+00,-4.80e-02,
2.84e+00,-2.94e+00,-6.40e-02,
2.88e+00,-2.86e+00,-4.00e-02,
2.84e+00,-2.90e+00,-5.60e-02,
2.90e+00,-2.86e+00,-4.00e-02,
2.90e+00,-2.86e+00,-4.80e-02,
2.86e+00,-2.88e+00,-3.20e-02,
2.90e+00,-2.88e+00,-5.60e-02,
2.88e+00,-2.84e+00,-3.20e-02,
2.88e+00,-2.88e+00,-2.40e-02,
2.90e+00,-2.82e+00,-4.80e-02,
2.88e+00,-2.84e+00,-2.40e-02,
2.90e+00,-2.80e+00,-5.60e-02,
2.88e+00,-2.80e+00,-5.60e-02,
2.92e+00,-2.84e+00,-2.40e-02,
2.92e+00,-2.80e+00,-3.20e-02,
2.88e+00,-2.84e+00,-5.60e-02,
2.88e+00,-2.82e+00,-4.00e-02,
2.92e+00,-2.78e+00,0.00e+00,
2.90e+00,-2.80e+00,-3.20e-02,
2.92e+00,-2.72e+00,0.00e+00,
2.92e+00,-2.74e+00,0.00e+00,
2.90e+00,-2.70e+00,2.40e-02,
2.90e+00,-2.74e+00,1.60e-02,
2.96e+00,-2.68e+00,0.00e+00,
2.90e+00,-2.74e+00,0.00e+00,
2.96e+00,-2.68e+00,3.20e-02,
2.94e+00,-2.70e+00,8.00e-03,
2.96e+00,-2.66e+00,4.00e-02,
2.94e+00,-2.66e+00,4.00e-02,
2.96e+00,-2.70e+00,2.40e-02,
2.94e+00,-2.66e+00,2.40e-02,
2.96e+00,-2.70e+00,4.80e-02,
2.96e+00,-2.68e+00,4.00e-02,
2.94e+00,-2.64e+00,2.40e-02,
2.94e+00,-2.66e+00,4.00e-02,
2.98e+00,-2.60e+00,2.40e-02,
2.94e+00,-2.62e+00,4.80e-02,
2.98e+00,-2.58e+00,2.40e-02,
2.98e+00,-2.60e+00,3.20e-02,
2.94e+00,-2.54e+00,5.60e-02,
2.96e+00,-2.54e+00,3.20e-02,
2.98e+00,-2.60e+00,6.40e-02,
2.98e+00,-2.60e+00,6.40e-02,
2.96e+00,-2.54e+00,8.80e-02,
2.98e+00,-2.54e+00,6.40e-02,
2.96e+00,-2.56e+00,8.80e-02,
2.96e+00,-2.56e+00,5.60e-02,
3.00e+00,-2.52e+00,8.80e-02,
3.00e+00,-2.52e+00,9.60e-02,
2.96e+00,-2.56e+00,7.20e-02,
3.00e+00,-2.54e+00,7.20e-02,
2.98e+00,-2.48e+00,9.60e-02,
3.00e+00,-2.50e+00,9.60e-02,
3.00e+00,-2.46e+00,7.20e-02,
3.00e+00,-2.48e+00,8.00e-02,
3.00e+00,-2.44e+00,1.28e-01,
3.00e+00,-2.44e+00,1.12e-01,
3.04e+00,-2.44e+00,1.44e-01,
3.00e+00,-2.44e+00,1.52e-01,
3.04e+00,-2.42e+00,1.28e-01,
3.04e+00,-2.44e+00,1.60e-01,
3.00e+00,-2.40e+00,1.36e-01,
3.02e+00,-2.44e+00,1.52e-01,
3.04e+00,-2.40e+00,1.28e-01,
3.04e+00,-2.40e+00,1.36e-01,
3.02e+00,-2.44e+00,1.60e-01,
3.02e+00,-2.40e+00,1.60e-01,
3.04e+00,-2.42e+00,1.44e-01,
3.02e+00,-2.42e+00,1.60e-01,
3.06e+00,-2.38e+00,1.28e-01,
3.06e+00,-2.40e+00,1.44e-01,
3.02e+00,-2.28e+00,8.00e-03,
3.06e+00,-2.26e+00,3.20e-02,
3.04e+00,-2.34e+00,4.16e-01,
3.06e+00,-2.32e+00,4.32e-01,
3.04e+00,-2.34e+00,3.68e-01,
3.06e+00,-2.32e+00,3.76e-01,
3.04e+00,-2.36e+00,2.96e-01,
3.04e+00,-2.36e+00,3.04e-01,
3.10e+00,-2.32e+00,2.64e-01,
3.06e+00,-2.32e+00,2.80e-01,
3.10e+00,-2.34e+00,2.16e-01,
3.08e+00,-2.32e+00,2.24e-01,
3.10e+00,-2.34e+00,2.00e-01,
3.08e+00,-2.32e+00,2.08e-01,
3.10e+00,-2.34e+00,2.24e-01,
3.08e+00,-2.34e+00,2.08e-01,
3.10e+00,-2.30e+00,2.32e-01,
3.08e+00,-2.28e+00,2.16e-01,
3.10e+00,-2.36e+00,2.48e-01,
3.08e+00,-2.30e+00,2.40e-01,
3.12e+00,-2.26e+00,2.72e-01,
3.12e+00,-2.30e+00,2.64e-01,
3.08e+00,-2.26e+00,2.24e-01,
3.12e+00,-2.30e+00,2.24e-01,
3.10e+00,-2.26e+00,2.64e-01,
3.10e+00,-2.30e+00,2.40e-01,
3.12e+00,-2.26e+00,2.72e-01,
3.10e+00,-2.26e+00,2.64e-01,
3.12e+00,-2.30e+00,2.88e-01,
3.10e+00,-2.30e+00,2.88e-01,
3.14e+00,-2.26e+00,2.56e-01,
3.10e+00,-2.30e+00,2.48e-01,
3.16e+00,-2.26e+00,2.72e-01,
3.16e+00,-2.26e+00,2.64e-01,
3.14e+00,-2.30e+00,2.88e-01,
3.14e+00,-2.26e+00,2.72e-01,
3.16e+00,-2.30e+00,2.96e-01,
3.14e+00,-2.28e+00,2.72e-01,
3.16e+00,-2.26e+00,3.04e-01,
3.14e+00,-2.26e+00,3.04e-01,
3.16e+00,-2.28e+00,2.80e-01,
3.14e+00,-2.28e+00,3.04e-01,
3.18e+00,-2.26e+00,2.72e-01,
3.14e+00,-2.26e+00,2.88e-01,
3.18e+00,-2.30e+00,3.12e-01,
3.18e+00,-2.26e+00,3.04e-01,
3.14e+00,-2.28e+00,3.28e-01,
3.18e+00,-2.26e+00,3.12e-01,
3.16e+00,-2.30e+00,2.96e-01,
3.16e+00,-2.26e+00,2.96e-01,
3.18e+00,-2.30e+00,3.20e-01,
3.18e+00,-2.26e+00,3.04e-01,
3.16e+00,-2.30e+00,3.44e-01,
3.16e+00,-2.26e+00,3.44e-01,
3.20e+00,-2.30e+00,3.12e-01,
3.20e+00,-2.26e+00,3.12e-01,
3.16e+00,-2.30e+00,2.88e-01,
3.20e+00,-2.30e+00,3.12e-01,
3.18e+00,-2.26e+00,2.88e-01,
3.20e+00,-2.30e+00,2.88e-01,
3.18e+00,-2.28e+00,3.20e-01,
3.20e+00,-2.30e+00,3.12e-01,
3.18e+00,-2.28e+00,3.36e-01,
3.18e+00,-2.30e+00,3.44e-01,
3.24e+00,-2.28e+00,3.20e-01,
3.18e+00,-2.28e+00,3.28e-01,
3.24e+00,-2.34e+00,3.44e-01,
3.22e+00,-2.28e+00,3.52e-01,
3.24e+00,-2.34e+00,3.28e-01,
3.22e+00,-2.30e+00,3.52e-01,
3.24e+00,-2.34e+00,3.36e-01,
3.24e+00,-2.32e+00,3.52e-01,
3.22e+00,-2.34e+00,3.28e-01,
3.24e+00,-2.32e+00,3.28e-01,
3.22e+00,-2.36e+00,3.44e-01,
3.26e+00,-2.32e+00,3.44e-01,
3.22e+00,-2.36e+00,3.12e-01,
3.26e+00,-2.34e+00,3.04e-01,
3.22e+00,-2.36e+00,3.44e-01,
3.24e+00,-2.34e+00,3.28e-01,
3.26e+00,-2.38e+00,3.52e-01,
3.24e+00,-2.34e+00,3.44e-01,
3.26e+00,-2.40e+00,3.20e-01,
3.26e+00,-2.34e+00,3.36e-01,
3.24e+00,-2.40e+00,2.96e-01,
3.24e+00,-2.34e+00,3.12e-01,
3.30e+00,-2.40e+00,3.36e-01,
3.30e+00,-2.38e+00,3.04e-01,
3.24e+00,-2.44e+00,3.28e-01,
3.30e+00,-2.42e+00,3.36e-01,
3.24e+00,-2.38e+00,3.20e-01,
3.28e+00,-2.42e+00,3.44e-01,
3.30e+00,-2.40e+00,3.20e-01,
3.28e+00,-2.40e+00,3.28e-01,
3.30e+00,-2.44e+00,3.44e-01,
3.28e+00,-2.44e+00,3.28e-01,
3.30e+00,-2.40e+00,3.52e-01,
3.28e+00,-2.44e+00,3.44e-01,
3.30e+00,-2.40e+00,3.28e-01,
3.28e+00,-2.44e+00,3.44e-01,
3.32e+00,-2.44e+00,2.96e-01,
3.28e+00,-2.44e+00,2.96e-01,
3.32e+00,-2.42e+00,3.12e-01,
3.32e+00,-2.44e+00,2.88e-01,
3.30e+00,-2.48e+00,3.20e-01,
